,Output,Type,Content
(7) Mitigations,Action Level,Whole number,The entered Risk Priority Number (RPN) level for action on failure causes
,Occurrence Limit,Whole number,The entered threshold occurrence level for investigation of a failure mode and its associated cause
,Requirement,Text,The entered Name of each Design Requirement
,Failure Mode,Text,The entered Failure Mode for each Design Requirement
,Effect,Text,The entered Effect of each Failure Mode on each Design Requirement
,SEV,Whole number,The entered Severity for each Failure Mode Effect
,,,Range 1-10
,Cause,Text,The entered Cause of each Failure Mode
,OCC,Whole number,The entered likely Occurrence of each Failure Mode Cause
,,,Range 1-10
,Design Control,Text,The entered Design Control for each failure Cause
,DET,Whole number,The entered likely Detection rate that each Design Control will detect the Failure Mode Cause
,RPN,Whole number,The calculated Risk Priority Number (RPN) level. A mitigation action is required if the calculated RPN meets or exceeds the entered Action Level
(8) Report,Action Level,Whole number,The entered Risk Priority Number (RPN) level for action on failure causes
,Occurrence Limit,Whole number,The entered threshold occurrence level for investigation of a failure mode and its associated cause
,Requirement,Text,The entered Name of each Design Requirement
,Failure Mode,Text,The entered Failure Mode for each Design Requirement
,Effect,Text,The entered Effect of each Failure Mode on each Design Requirement
,SEV,Whole number,The entered Severity for each Failure Mode Effect
,,,Range 1-10
,Cause,Text,The entered Cause of each Failure Mode
,OCC,Whole number,The entered likely Occurrence of each Failure Mode Cause
,,,Range 1-10
,Design Control,Text,The entered Design Control for each failure Cause
,DET,Whole number,The entered likely Detection rate that each Design Control will detect the Failure Mode Cause
,RPN,Whole number,The calculated Risk Priority Number (RPN) level. A mitigation action is required if the calculated RPN meets or exceeds the entered Action Level
,Mitigation,Text,The entered Mitigation Name for any additional mitigation required to reduce the RPN below the Action Level
,mSEV,Text,The entered severity for any additional mitigation required to reduce the RPN below the Action Level
,mOCC,Text,The entered likely occurrence for any additional mitigation required to reduce the RPN below the Action Level
,mDET,Text,The entered likely Detection rate for any additional mitigation required to reduce the RPN below the Action Level
,rRPN,Whole number,The calculated resultant RPN following the entry of additional mitigations
