description	Capital cost	Controllability	Degradation	Energy Conversion	Fluid flow	Human interaction	Material Selection	Operational costs
Plate	240	90	2000	600	200	0	2000	8
Tube	280	87	1800	800	200	0	1000	7
Convolution	270	94	2200	500	200	0	2200	9
Advanced material Plate	240	96	2500	500	230	0	1500	5
