	Capital cost	Controllability	Degradation	Energy Conversion	Fluid flow	Human interaction	Material Selection	Operational costs	System Integration
Capital cost		-4	-1	-4	-9	-1	-4	4	-4
Controllability			4	4	0	0	-4	1	4
Degradation				9	0	1	9	-1	1
Energy Conversion					4	0	4	4	4
Fluid flow						0	4	-4	0
Human interaction							0	4	9
Material Selection								-9	4
Operational costs									4
System Integration
