Severity,Description
1,No effect
2,"Minor performance loss, defect noticed only by close inspection"
3,"Minor performance loss, defect noticed only by most observers"
4,"Minor performance loss, defect apparent"
5,"Device operable, but minor performance loss, end-user experience some dissatisfaction"
6,"Device operable, but auxiliary performance lost"
7,"Device operable, but with reduced performance level, end-user dissatisfied"
8,"Device inoperable, primary function lost"
9,"Device inoperable, safe function lost with warning"
10,"Device inoperable, safe function lost without warning"
